^C:\USERS\DMITRY\DOCUMENTS\VISUAL STUDIO 2013\PROJECTS\HEATPROJECTHELPER\HEATPROJECTMAKER\DEBUG\HEATPROJECTMAKER.RES|C:\USERS\DMITRY\DOCUMENTS\VISUAL STUDIO 2013\PROJECTS\HEATPROJECTHELPER\HEATPROJECTMAKER\DEBUG\MAIN.OBJ|C:\USERS\DMITRY\DOCUMENTS\VISUAL STUDIO 2013\PROJECTS\HEATPROJECTHELPER\HEATPROJECTMAKER\DEBUG\MAINWINDOW.OBJ|C:\USERS\DMITRY\DOCUMENTS\VISUAL STUDIO 2013\PROJECTS\HEATPROJECTHELPER\HEATPROJECTMAKER\DEBUG\MOC_MAINWINDOW.OBJ|C:\USERS\DMITRY\DOCUMENTS\VISUAL STUDIO 2013\PROJECTS\HEATPROJECTHELPER\HEATPROJECTMAKER\DEBUG\MOC_SETTINGSDIALOG.OBJ|C:\USERS\DMITRY\DOCUMENTS\VISUAL STUDIO 2013\PROJECTS\HEATPROJECTHELPER\HEATPROJECTMAKER\DEBUG\MOC_WORD_EDITOR.OBJ|C:\USERS\DMITRY\DOCUMENTS\VISUAL STUDIO 2013\PROJECTS\HEATPROJECTHELPER\HEATPROJECTMAKER\DEBUG\QRC_MAINWINDOW.OBJ|C:\USERS\DMITRY\DOCUMENTS\VISUAL STUDIO 2013\PROJECTS\HEATPROJECTHELPER\HEATPROJECTMAKER\DEBUG\SETTINGSDIALOG.OBJ|C:\USERS\DMITRY\DOCUMENTS\VISUAL STUDIO 2013\PROJECTS\HEATPROJECTHELPER\HEATPROJECTMAKER\DEBUG\SETTINGS_SQLITE_HELPER.OBJ|C:\USERS\DMITRY\DOCUMENTS\VISUAL STUDIO 2013\PROJECTS\HEATPROJECTHELPER\HEATPROJECTMAKER\DEBUG\WORD_EDITOR.OBJ
C:\USERS\DMITRY\DOCUMENTS\VISUAL STUDIO 2013\PROJECTS\HEATPROJECTHELPER\WIN32\DEBUG\HEATPROJECTMAKER.ILK
C:\USERS\DMITRY\DOCUMENTS\VISUAL STUDIO 2013\PROJECTS\HEATPROJECTHELPER\WIN32\DEBUG\HEATPROJECTMAKER.EXE
C:\USERS\DMITRY\DOCUMENTS\VISUAL STUDIO 2013\PROJECTS\HEATPROJECTHELPER\WIN32\DEBUG\HEATPROJECTMAKER.PDB
